Appendix - Visualizing thefts and robberies on transportation in Mexico City with R
…
mode_crimes_counts("Car")

## Joining, by = "name"

## Simple feature collection with 1743 features and 2 fields (with 4 geometries empty)
## geometry type:  GEOMETRY
## dimension:      XY
## bbox:           xmin: 1730608 ymin: 2157724 xmax: 1774421 ymax: 2210495
## projected CRS:  Mexico ITRF92 / UTM zone 12N
## # A tibble: 1,743 x 3
##    name                     n                                           geometry
##    <chr>                <int>                                      <POLYGON [m]>
##  1 10 DE ABRIL              2 ((1744319 2193620, 1744340 2193637, 1744369 21936~
##  2 10 DE MAYO               5 ((1754014 2192680, 1754157 2192669, 1754241 21926~
##  3 12 DE DICIEMBRE          1 ((1757047 2181226, 1757153 2181163, 1757180 21811~
##  4 15 DE AGOSTO             4 ((1754430 2198354, 1754504 2198327, 1754611 21983~
##  5 16 DE SEPTIEMBRE        28 ((1745245 2188575, 1745322 2188636, 1745352 21885~
##  6 19 DE MAYO               3 ((1740472 2183721, 1740548 2183756, 1740552 21837~
##  7 1A AMPLIACION SANTI~     6 ((1767125 2184314, 1767132 2184311, 1767152 21843~
##  8 1o DE MAYO               1 ((1733004 2180271, 1732971 2180284, 1732999 21803~
##  9 1RA VICTORIA             4 ((1745528 2186508, 1745523 2186543, 1745508 21866~
## 10 1RA VICTORIA SECCIO~    11 ((1746049 2186613, 1746029 2186644, 1746001 21866~
## # ... with 1,733 more rows
…
