A quick glance at reported robberies in Mexico Cityâ€™s transportation system
…
sapply(transport_crimes, function(x) sum(is.na(x)))

##     datetime          lat          lon municipality neighborhood  transp_mode 
##            8          483          483          114          506            0 
##     violence 
##            0

I check on how the data is distributed over time

# group by years and count to check distribution of data over time
transport_crimes %>% select(transp_mode, datetime) %>% 
                      mutate(year = year(datetime)) %>% 
                      group_by(year) %>% count()

## # A tibble: 22 x 2
## # Groups:   year [22]
##     year     n
##    <dbl> <int>
##  1  1915     1
##  2  1955     1
##  3  1958     1
##  4  1969     1
##  5  1980     1
##  6  1986     2
##  7  1990     1
##  8  1993     1
##  9  2001     3
## 10  2007     1
## # ... with 12 more rows
…
top_nonviolent_stations <- station_counts %>% select(stop_name, violence, n) %>% 
  filter(!is.na(stop_name), violence == "No") %>% 
  group_by(stop_name) %>% 
  slice(1)  %>% 
  arrange(desc(n, by_group = TRUE)) %>% 
  select(-violence) %>% 
  top_n(10)

Neighborhoods

## # A tibble: 218 x 3
## # Groups:   name [218]
##    name                    transp_mode     n
##    <chr>                   <fct>       <int>
##  1 NAPOLES                 Metrobus      186
##  2 BUENAVISTA I            Metrobus      170
##  3 BUENAVISTA II           Metrobus      160
##  4 JUAREZ                  Metrobus      121
##  5 EXTREMADURA INSURGENTES Metrobus      114
##  6 HIPODROMO II            Metrobus      104
##  7 ROMA NORTE II           Metrobus      103
##  8 TABACALERA              Metrobus      100
##  9 NAPOLES (AMPL)          Metrobus       84
## 10 ROMA SUR II             Metrobus       84
## # ... with 208 more rows
…
